…
Most of the patients who were told they were diabetics were diagnosed between the ages of 45 and 60. The colors in the bins indicate the patients current age.  We see pink colors in the bins along the age of 40 indicating that Some of the patients who are currently above the age of 70 have been told they were diabetics when they were in their 40's.

#### Table 6. comparing the number of diabetics in the different States


```r
mydata %>% filter(Told_diab == "Yes") %>% group_by(State) %>% tally() %>% arrange(desc(n))
```

```
## # A tibble: 54 x 2
##             State     n
##            <fctr> <int>
##  1        Florida  5122
##  2         Kansas  2832
##  3       Nebraska  2009
##  4 South Carolina  1802
##  5  Massachusetts  1762
##  6       Maryland  1698
##  7           Ohio  1673
##  8       Michigan  1630
##  9       Kentucky  1625
## 10          Texas  1534
## # ... with 44 more rows
```
…
**Research quesion 3:** Is there an association between chronological age and being told that diabetes has affected the eyes among responders who were told they were diabetics?

#### Table 9. comparing the number of diabetics who had eye problems in the different age groups


```r
mydata %>% filter(Chrono_age != "NA", Eye_complic != "NA", Diag_MI != "NA") %>% group_by(Eye_complic, Chrono_age) %>% tally() %>% slice()
```

```
## # A tibble: 26 x 3
## # Groups:   Eye_complic [?]
##    Eye_complic   Chrono_age     n
##         <fctr>       <fctr> <int>
##  1         Yes Age 18 to 24    22
##  2         Yes Age 25 to 29    30
##  3         Yes Age 30 to 34    57
##  4         Yes Age 35 to 39   111
##  5         Yes Age 40 to 44   207
##  6         Yes Age 45 to 49   402
##  7         Yes Age 50 to 54   623
##  8         Yes Age 55 to 59   905
##  9         Yes Age 60 to 64  1113
## 10         Yes Age 65 to 69  1213
## # ... with 16 more rows
```
…
